<?xml version="1.0" encoding="UTF-8"?>
<session version="1.0">
<refactoring comment="Rename type &apos;com.luv2code.heaps.Heaps&apos; to &apos;HeapsArray&apos;&#x0A;- Original project: &apos;CodingBlocks&apos;&#x0A;- Original element: &apos;com.luv2code.heaps.Heaps&apos;&#x0A;- Renamed element: &apos;com.luv2code.heaps.HeapsArray&apos;&#x0A;- Update references to refactored element&#x0A;- Update textual occurrences in comments and strings" description="Rename type &apos;Heaps&apos;" flags="589830" id="org.eclipse.jdt.ui.rename.type" input="/src&lt;com.luv2code.heaps{Heaps.java[Heaps" matchStrategy="1" name="HeapsArray" qualified="false" references="true" similarDeclarations="false" stamp="1511694434702" textual="false" version="1.0"/>
</session>