<?xml version="1.0" encoding="UTF-8"?>
<session version="1.0">
<refactoring comment="Rename type &apos;com.luv2code.trees.RootToLeafPath&apos; to &apos;RootToLeafPathSum&apos;&#x0A;- Original project: &apos;DataStructures&apos;&#x0A;- Original element: &apos;com.luv2code.trees.RootToLeafPath&apos;&#x0A;- Renamed element: &apos;com.luv2code.trees.RootToLeafPathSum&apos;&#x0A;- Update references to refactored element&#x0A;- Update textual occurrences in comments and strings" description="Rename type &apos;RootToLeafPath&apos;" flags="589830" id="org.eclipse.jdt.ui.rename.type" input="/src&lt;com.luv2code.trees{RootToLeafPath.java[RootToLeafPath" matchStrategy="1" name="RootToLeafPathSum" qualified="false" references="true" similarDeclarations="false" stamp="1511002821550" textual="false" version="1.0"/>
</session>