<?xml version="1.0" encoding="UTF-8"?>
<session version="1.0">
<refactoring comment="Rename type &apos;com.luv2code.linkedlist.ReverseLLIterative&apos; to &apos;ReverseLLIterativeRecursive&apos;&#x0A;- Original project: &apos;DataStructures&apos;&#x0A;- Original element: &apos;com.luv2code.linkedlist.ReverseLLIterative&apos;&#x0A;- Renamed element: &apos;com.luv2code.linkedlist.ReverseLLIterativeRecursive&apos;&#x0A;- Update references to refactored element&#x0A;- Update textual occurrences in comments and strings" description="Rename type &apos;ReverseLLIterative&apos;" flags="589830" id="org.eclipse.jdt.ui.rename.type" input="/src&lt;com.luv2code.linkedlist{ReverseLLIterative.java[ReverseLLIterative" matchStrategy="1" name="ReverseLLIterativeRecursive" qualified="false" references="true" similarDeclarations="false" stamp="1506855923611" textual="false" version="1.0"/>
</session>